id,name,surname,email,genre,isAdmin,created
1,Gonzalo,"Cercos Vazquez",gonzalo@tomodos.com,Masculino,1,NULL
2,Netra,Castells,netraluis@gmail.com,Masculino,1,NULL
3,Jonathan,Perez,jonathanperezlopez1996@gmail.com,Masculino,1,NULL
4,Petar,.,petarkontakt@gmail.com,Masculino,1,NULL
5,Lucifer,666,lucifer@666.com,sinDefinir,0,NULL
6,Benet,Perarnau,perarnau.benet@test.com,Masculino,0,NULL
7,Berta,Amat,amat.berta@test.com,Femenino,0,NULL
8,Penelope,Garcia,garcia.penelope@test.com,Femenino,0,NULL
9,Ariadna,Glande,glande.ariadna@test.com,Femenino,0,NULL
10,Clara,Noseque,noseque.clara@test.com,Femenino,0,NULL
